{
	"info": {
		"name": "miniAspire",
		"_postman_id": "3bdfffde-243a-7852-8e6c-4a8580dea803",
		"description": "",
		"schema": "https://schema.getpostman.com/json/collection/v2.1.0/collection.json"
	},
	"item": [
		{
			"name": "localhost:8000/api/auth/signup",
			"request": {
				"auth": {
					"type": "oauth2",
					"oauth2": [
						{
							"key": "accessToken",
							"value": "jV8vRMtHqyc7MWhji4ncfgfEU7IeSNlBF6es1t8P",
							"type": "string"
						},
						{
							"key": "addTokenTo",
							"value": "queryParams",
							"type": "string"
						},
						{
							"key": "callBackUrl",
							"type": "any"
						},
						{
							"key": "authUrl",
							"type": "any"
						},
						{
							"key": "accessTokenUrl",
							"type": "any"
						},
						{
							"key": "clientId",
							"type": "any"
						},
						{
							"key": "clientSecret",
							"type": "any"
						},
						{
							"key": "clientAuth",
							"type": "any"
						},
						{
							"key": "grantType",
							"type": "any"
						},
						{
							"key": "scope",
							"type": "any"
						},
						{
							"key": "username",
							"type": "any"
						},
						{
							"key": "password",
							"type": "any"
						},
						{
							"key": "tokenType",
							"value": "",
							"type": "string"
						},
						{
							"key": "redirectUri",
							"type": "any"
						},
						{
							"key": "refreshToken",
							"type": "any"
						}
					]
				},
				"method": "POST",
				"header": [
					{
						"key": "Content-Type",
						"value": "application/json"
					},
					{
						"key": "X-Requested-With",
						"value": "XMLHttpRequest"
					}
				],
				"body": {
					"mode": "raw",
					"raw": "{\n\t\"name\": \"claudio\",\n\t\"email\": \"claudio.loseto@gmail.com\",\n\t\"password\": \"12345\",\n\t\"password_confirmation\": \"12345\"\n}"
				},
				"url": {
					"raw": "localhost:8000/api/auth/signup",
					"host": [
						"localhost"
					],
					"port": "8000",
					"path": [
						"api",
						"auth",
						"signup"
					]
				},
				"description": "User signup"
			},
			"response": []
		},
		{
			"name": "localhost:8000/api/auth/login",
			"request": {
				"auth": {
					"type": "oauth2",
					"oauth2": [
						{
							"key": "accessToken",
							"value": "jV8vRMtHqyc7MWhji4ncfgfEU7IeSNlBF6es1t8P",
							"type": "string"
						},
						{
							"key": "addTokenTo",
							"value": "queryParams",
							"type": "string"
						},
						{
							"key": "callBackUrl",
							"type": "any"
						},
						{
							"key": "authUrl",
							"type": "any"
						},
						{
							"key": "accessTokenUrl",
							"type": "any"
						},
						{
							"key": "clientId",
							"type": "any"
						},
						{
							"key": "clientSecret",
							"type": "any"
						},
						{
							"key": "clientAuth",
							"type": "any"
						},
						{
							"key": "grantType",
							"type": "any"
						},
						{
							"key": "scope",
							"type": "any"
						},
						{
							"key": "username",
							"type": "any"
						},
						{
							"key": "password",
							"type": "any"
						},
						{
							"key": "tokenType",
							"value": "",
							"type": "string"
						},
						{
							"key": "redirectUri",
							"type": "any"
						},
						{
							"key": "refreshToken",
							"type": "any"
						}
					]
				},
				"method": "POST",
				"header": [
					{
						"key": "Content-Type",
						"value": "application/json"
					},
					{
						"key": "X-Requested-With",
						"value": "XMLHttpRequest"
					}
				],
				"body": {
					"mode": "raw",
					"raw": "{\n\t\"email\":\"claudio.loseto@gmail.com\",\n\t\"password\":\"12345\",\n\t\"remember_me\": true\n}"
				},
				"url": {
					"raw": "localhost:8000/api/auth/login",
					"host": [
						"localhost"
					],
					"port": "8000",
					"path": [
						"api",
						"auth",
						"login"
					]
				},
				"description": "User login"
			},
			"response": []
		},
		{
			"name": "localhost:8000/api/auth/logout",
			"request": {
				"auth": {
					"type": "oauth2",
					"oauth2": [
						{
							"key": "accessToken",
							"value": "jV8vRMtHqyc7MWhji4ncfgfEU7IeSNlBF6es1t8P",
							"type": "string"
						},
						{
							"key": "addTokenTo",
							"value": "queryParams",
							"type": "string"
						},
						{
							"key": "callBackUrl",
							"type": "any"
						},
						{
							"key": "authUrl",
							"type": "any"
						},
						{
							"key": "accessTokenUrl",
							"type": "any"
						},
						{
							"key": "clientId",
							"type": "any"
						},
						{
							"key": "clientSecret",
							"type": "any"
						},
						{
							"key": "clientAuth",
							"type": "any"
						},
						{
							"key": "grantType",
							"type": "any"
						},
						{
							"key": "scope",
							"type": "any"
						},
						{
							"key": "username",
							"type": "any"
						},
						{
							"key": "password",
							"type": "any"
						},
						{
							"key": "tokenType",
							"value": "",
							"type": "string"
						},
						{
							"key": "redirectUri",
							"type": "any"
						},
						{
							"key": "refreshToken",
							"type": "any"
						}
					]
				},
				"method": "GET",
				"header": [
					{
						"key": "Authorization",
						"value": "Bearer eyJ0eXAiOiJKV1QiLCJhbGciOiJSUzI1NiIsImp0aSI6ImM0YTU4MTYwZWUwZWU0YzEwNjk2YzZiMThmZGEzZjNiMWU2OTRmYmM4YzFlMjE5YjNmN2RmYjUzNWQyMDc3ZWUyNDUzZjBlMTliZTEwYzliIn0.eyJhdWQiOiIxIiwianRpIjoiYzRhNTgxNjBlZTBlZTRjMTA2OTZjNmIxOGZkYTNmM2IxZTY5NGZiYzhjMWUyMTliM2Y3ZGZiNTM1ZDIwNzdlZTI0NTNmMGUxOWJlMTBjOWIiLCJpYXQiOjE1MzM0ODQ1MTQsIm5iZiI6MTUzMzQ4NDUxNCwiZXhwIjoxNTY1MDIwNTE0LCJzdWIiOiIyIiwic2NvcGVzIjpbXX0.BbuVMwJGqlviRj6cWvkdkSmRQD3NWfT39CmH0gdVICpsEM-ZTZsySS0rMw009ueSnXDMgxGO-4baiI5I_8N17h5SA3UCHjBZEVvXfOxgQMfDQVSUvW5c8JOvd45J_WIRrUy3IPBrkndN4-Ugo9UMdvxi-K0-YYTo8r7B-YQvYZc7DLpesGDh90uY6C7jZ67Se6B-nIC9s8YtL64Bxm7p9_45qMmci_G-Z1pWhL0g6hLEVws8KWywU-aw2vntsjkpbV491QT5mL_B4YP8xCA200UGRHbwDJCi9GyaVjr-pwGzYx_SNwNYCNu_oQ6iL-lIWgQAGpt-z_YsinSkvY7D6YJEmzoMhzAr4KpV69alSUZkQJERDI8XdgNV_7NWFveVAkV7rzmbJCWkgiLYAYlV7Kg3DwlNWrMqUShLapIDpeZB4neGHzQ8w5ZBPvwl8rVNsM1yujkTE6MH5xzCwJL0vZUE7nGquzEeQIhyq2NGw7xyCHbXhBfxv7vK-lF8CwErEc7aVTZ7C6AWOOxav9pra6RyW6arQi9m2ystPVYCLP8k4KeEJirtoBfBs01QCiIO1t08vb8Xumc1sSWubV5k3u0TTDWhTcDAbCfE9QXvpEYQI6cjT4fyBKGImcETKOt-i0CeQMnxcTEUu-4Yw2ec14ktKXZCvPga3noW4QJ3IEw"
					}
				],
				"body": {
					"mode": "raw",
					"raw": "{\n\t\"email\":\"claudio.loseto@gmail.com\",\n\t\"password\":\"12345\",\n\t\"remember_me\": true\n}"
				},
				"url": {
					"raw": "localhost:8000/api/auth/logout",
					"host": [
						"localhost"
					],
					"port": "8000",
					"path": [
						"api",
						"auth",
						"logout"
					]
				},
				"description": "User logout"
			},
			"response": []
		},
		{
			"name": "localhost:8000/api/auth/user",
			"request": {
				"method": "GET",
				"header": [
					{
						"key": "Authorization",
						"value": "Bearer eyJ0eXAiOiJKV1QiLCJhbGciOiJSUzI1NiIsImp0aSI6ImRhMDNkOGExZGMwOWZhZDg2M2ZmZDZlY2E3MTgyZGVhNjMyNWNjNDJmOGEwZTM0YTg0ZGI3MTMzODUxNmNmMjIwNzg5Yzk2NzY0NTgwNjFlIn0.eyJhdWQiOiIxIiwianRpIjoiZGEwM2Q4YTFkYzA5ZmFkODYzZmZkNmVjYTcxODJkZWE2MzI1Y2M0MmY4YTBlMzRhODRkYjcxMzM4NTE2Y2YyMjA3ODljOTY3NjQ1ODA2MWUiLCJpYXQiOjE1MzM0OTUwMjEsIm5iZiI6MTUzMzQ5NTAyMSwiZXhwIjoxNTY1MDMxMDIxLCJzdWIiOiIxIiwic2NvcGVzIjpbXX0.ZV7GbH_HE_eoMHKoGq3jAb-CDD_Wwf-ZZyrXu6m8mHvdWqkvWMGyHlj5mkY18U3VycHY7soI92kJR-pW-Iq_xVbb76Ye95pazekExGdvIITKVTY77ARqr-BEty65CUBPk-Cjh5z2-qJcy5WHHAjakKXUMWDMr6SweusOiHgBm4Ji4crmmswHNVwVJ1Ewn4kK211WTUQvtbs5qWiG0GAbyjS_bhxj6h7nEGDiKk7wsZpovKGkq6RHJID8IQEMYfXUjsEFF_pZ00Sg4A8IFTOr8c6D3vBufd-83-5fh2MLPNsWc4PHNEeSmaREgyO4WsZoH-arNBJjMwsn4JF2NgHF7fdSKJevx2smPd0ViJ_vrsZMq5c608GC3Gj25gxllU4f_eFuQdG_QhYg4HRVvqGMItToaZONiUMVmEifDuLjnTeAUKN5BBTipp7Yl7EEf1UvkRxBMUy3-e1dThfyTbioVMZxtFQYpy-jR-hA_1YTFTWNwP7rzib17bocs_qKUeS_Pt497BCfbSbeWB2OKR1gVC8mC-jonmNmZDHPZjfim0wUqaL1FCuH8AVo7CUBxxEWsGX6jCKCjXLKG46zhuAho1uv_42uE9qt6jb8R4BKmVq3cxE2qDT2NM6f-SbFsBp9yZy76t_sxCIUqOJGlgP4NEw_HwPDhK5UxBVz7YJvVdY"
					}
				],
				"body": {},
				"url": {
					"raw": "localhost:8000/api/auth/user",
					"host": [
						"localhost"
					],
					"port": "8000",
					"path": [
						"api",
						"auth",
						"user"
					]
				},
				"description": "User informations"
			},
			"response": []
		},
		{
			"name": "localhost:8000/api/auth/loans",
			"request": {
				"method": "POST",
				"header": [
					{
						"key": "Authorization",
						"value": "Bearer eyJ0eXAiOiJKV1QiLCJhbGciOiJSUzI1NiIsImp0aSI6ImM0YTU4MTYwZWUwZWU0YzEwNjk2YzZiMThmZGEzZjNiMWU2OTRmYmM4YzFlMjE5YjNmN2RmYjUzNWQyMDc3ZWUyNDUzZjBlMTliZTEwYzliIn0.eyJhdWQiOiIxIiwianRpIjoiYzRhNTgxNjBlZTBlZTRjMTA2OTZjNmIxOGZkYTNmM2IxZTY5NGZiYzhjMWUyMTliM2Y3ZGZiNTM1ZDIwNzdlZTI0NTNmMGUxOWJlMTBjOWIiLCJpYXQiOjE1MzM0ODQ1MTQsIm5iZiI6MTUzMzQ4NDUxNCwiZXhwIjoxNTY1MDIwNTE0LCJzdWIiOiIyIiwic2NvcGVzIjpbXX0.BbuVMwJGqlviRj6cWvkdkSmRQD3NWfT39CmH0gdVICpsEM-ZTZsySS0rMw009ueSnXDMgxGO-4baiI5I_8N17h5SA3UCHjBZEVvXfOxgQMfDQVSUvW5c8JOvd45J_WIRrUy3IPBrkndN4-Ugo9UMdvxi-K0-YYTo8r7B-YQvYZc7DLpesGDh90uY6C7jZ67Se6B-nIC9s8YtL64Bxm7p9_45qMmci_G-Z1pWhL0g6hLEVws8KWywU-aw2vntsjkpbV491QT5mL_B4YP8xCA200UGRHbwDJCi9GyaVjr-pwGzYx_SNwNYCNu_oQ6iL-lIWgQAGpt-z_YsinSkvY7D6YJEmzoMhzAr4KpV69alSUZkQJERDI8XdgNV_7NWFveVAkV7rzmbJCWkgiLYAYlV7Kg3DwlNWrMqUShLapIDpeZB4neGHzQ8w5ZBPvwl8rVNsM1yujkTE6MH5xzCwJL0vZUE7nGquzEeQIhyq2NGw7xyCHbXhBfxv7vK-lF8CwErEc7aVTZ7C6AWOOxav9pra6RyW6arQi9m2ystPVYCLP8k4KeEJirtoBfBs01QCiIO1t08vb8Xumc1sSWubV5k3u0TTDWhTcDAbCfE9QXvpEYQI6cjT4fyBKGImcETKOt-i0CeQMnxcTEUu-4Yw2ec14ktKXZCvPga3noW4QJ3IEw"
					},
					{
						"key": "Content-Type",
						"value": "application/json"
					},
					{
						"key": "X-Requested-With",
						"value": "XMLHttpRequest"
					}
				],
				"body": {
					"mode": "raw",
					"raw": "{\n\t\"amount\": 5000,\n\t\"duration\": 48,\n\t\"frequency\": \"monthly\"\n}"
				},
				"url": {
					"raw": "localhost:8000/api/auth/loans",
					"host": [
						"localhost"
					],
					"port": "8000",
					"path": [
						"api",
						"auth",
						"loans"
					]
				},
				"description": "Creating a new loan"
			},
			"response": []
		},
		{
			"name": "localhost:8000/api/auth/loans/{id}",
			"request": {
				"method": "GET",
				"header": [
					{
						"key": "Authorization",
						"value": "Bearer eyJ0eXAiOiJKV1QiLCJhbGciOiJSUzI1NiIsImp0aSI6IjQ2MjcyNGI1NDY4ODAzYTkxYWMwZWI0NDkyNWM0MTM4NjZlZTNhMGU1M2Y2ZDI1ZWRhNmY4Y2QxNDI2NmNiZmUyMzk1M2JlZmQ0OTVjMmEzIn0.eyJhdWQiOiIxIiwianRpIjoiNDYyNzI0YjU0Njg4MDNhOTFhYzBlYjQ0OTI1YzQxMzg2NmVlM2EwZTUzZjZkMjVlZGE2ZjhjZDE0MjY2Y2JmZTIzOTUzYmVmZDQ5NWMyYTMiLCJpYXQiOjE1MzM0OTk1NDEsIm5iZiI6MTUzMzQ5OTU0MSwiZXhwIjoxNTY1MDM1NTQxLCJzdWIiOiIxIiwic2NvcGVzIjpbXX0.i40yUNEk52rRL4HrB5ZTPiQI0qvexUahH7Sl6rAnYX3oS-u2aB4Ur4_dxqmDe93E-c_V2LzwejVPAloAxT7tNu0gYP4f8LjpdIPmhPIm2CXgaxDA8QV4wK87xd-WVEjm1lMwVsuibQRVIPMhqsO7ivdTT2awK522PgbKez1LjDqGQVhFZEhIzWS4vX-6zlBsQIWjTTDH2Ppx0HuqAz9nnjlHKUfn3v_GPkXIV_YY0dsqySdGkD6y6gx0uArsqPQc9XxGG_88hzE0jJW9c_Gek9oRbUwkKCO6_kx_2uO3AjQ_ABN8H3Du-sSaCzIkijfgLpCLMYO_SGV2cWTdzkXE5Ixr0jdL2zdnq7gdzbOg3fUK6WRo2Yyqfi00GQgcUbzp71aDcI_2vfK8YPAxVQKpJ_7iik-jH4SuLK_d0uDhoT3Aj-0rRwA89YU3yeOVaXSnkisyqyNUxr3J60pO7co8C3gVHEE9Rzaab4cQhWWfqWgD83ATWE7vrciH48O54hqAeMHvZhz2--fi4Liu9yPpvE2zwC2kLLVGhEdVRfFOxVUIwrg2dJq6HwAkWGiUkCGJxQL_9A5VgjEl3hbMrakUiw9mWPkznFBFy76StI1jq8l8Q989AUSMOvZscwu4Ed7LDzdThBUJ6kDokGbb-_IfXFzsQ0nku0g73AtPd4YQjqA"
					},
					{
						"key": "Content-Type",
						"value": "application/json"
					},
					{
						"key": "X-Requested-With",
						"value": "XMLHttpRequest"
					}
				],
				"body": {
					"mode": "raw",
					"raw": "{\n\t\"amount\": 5000,\n\t\"duration\": 12,\n\t\"frequency\": \"Monthly\"\n}"
				},
				"url": {
					"raw": "localhost:8000/api/auth/loans/1",
					"host": [
						"localhost"
					],
					"port": "8000",
					"path": [
						"api",
						"auth",
						"loans",
						"1"
					]
				},
				"description": "Show a specified loan"
			},
			"response": []
		},
		{
			"name": "localhost:8000/api/auth/loans",
			"request": {
				"method": "GET",
				"header": [
					{
						"key": "Authorization",
						"value": "Bearer eyJ0eXAiOiJKV1QiLCJhbGciOiJSUzI1NiIsImp0aSI6IjQ2MjcyNGI1NDY4ODAzYTkxYWMwZWI0NDkyNWM0MTM4NjZlZTNhMGU1M2Y2ZDI1ZWRhNmY4Y2QxNDI2NmNiZmUyMzk1M2JlZmQ0OTVjMmEzIn0.eyJhdWQiOiIxIiwianRpIjoiNDYyNzI0YjU0Njg4MDNhOTFhYzBlYjQ0OTI1YzQxMzg2NmVlM2EwZTUzZjZkMjVlZGE2ZjhjZDE0MjY2Y2JmZTIzOTUzYmVmZDQ5NWMyYTMiLCJpYXQiOjE1MzM0OTk1NDEsIm5iZiI6MTUzMzQ5OTU0MSwiZXhwIjoxNTY1MDM1NTQxLCJzdWIiOiIxIiwic2NvcGVzIjpbXX0.i40yUNEk52rRL4HrB5ZTPiQI0qvexUahH7Sl6rAnYX3oS-u2aB4Ur4_dxqmDe93E-c_V2LzwejVPAloAxT7tNu0gYP4f8LjpdIPmhPIm2CXgaxDA8QV4wK87xd-WVEjm1lMwVsuibQRVIPMhqsO7ivdTT2awK522PgbKez1LjDqGQVhFZEhIzWS4vX-6zlBsQIWjTTDH2Ppx0HuqAz9nnjlHKUfn3v_GPkXIV_YY0dsqySdGkD6y6gx0uArsqPQc9XxGG_88hzE0jJW9c_Gek9oRbUwkKCO6_kx_2uO3AjQ_ABN8H3Du-sSaCzIkijfgLpCLMYO_SGV2cWTdzkXE5Ixr0jdL2zdnq7gdzbOg3fUK6WRo2Yyqfi00GQgcUbzp71aDcI_2vfK8YPAxVQKpJ_7iik-jH4SuLK_d0uDhoT3Aj-0rRwA89YU3yeOVaXSnkisyqyNUxr3J60pO7co8C3gVHEE9Rzaab4cQhWWfqWgD83ATWE7vrciH48O54hqAeMHvZhz2--fi4Liu9yPpvE2zwC2kLLVGhEdVRfFOxVUIwrg2dJq6HwAkWGiUkCGJxQL_9A5VgjEl3hbMrakUiw9mWPkznFBFy76StI1jq8l8Q989AUSMOvZscwu4Ed7LDzdThBUJ6kDokGbb-_IfXFzsQ0nku0g73AtPd4YQjqA"
					},
					{
						"key": "Content-Type",
						"value": "application/json"
					},
					{
						"key": "X-Requested-With",
						"value": "XMLHttpRequest"
					}
				],
				"body": {
					"mode": "raw",
					"raw": "{\n\t\"amount\": 5000,\n\t\"duration\": 12,\n\t\"frequency\": \"Monthly\"\n}"
				},
				"url": {
					"raw": "localhost:8000/api/auth/loans",
					"host": [
						"localhost"
					],
					"port": "8000",
					"path": [
						"api",
						"auth",
						"loans"
					]
				},
				"description": "Show all loans"
			},
			"response": []
		}
	]
}